This is pBibTeX, Version 0.99d-j0.33 (utf8.euc) (TeX Live 2015)
Capacity: max_strings=35307, hash_size=35307, hash_prime=30011
The top-level auxiliary file: LinProg.aux
The style file: jecon_a_reverse.bst
Reallocated glb_str_ptr (elt_size=4) to 20 items from 10.
Reallocated global_strs (elt_size=20001) to 20 items from 10.
Reallocated glb_str_end (elt_size=4) to 20 items from 10.
Reallocated singl_function (elt_size=4) to 100 items from 50.
Reallocated singl_function (elt_size=4) to 100 items from 50.
Reallocated wiz_functions (elt_size=4) to 6000 items from 3000.
Database file #1: mybib.bib
Database file #2: Mendeley/library.bib
Reallocated wiz_functions (elt_size=4) to 9000 items from 6000.
Reallocated singl_function (elt_size=4) to 100 items from 50.
Reallocated singl_function (elt_size=4) to 100 items from 50.
You've used 4 entries,
            8240 wiz_defined-function locations,
            1579 strings with 11635 characters,
and the built_in function-call counts, 4454 in all, are:
= -- 618
> -- 96
< -- 8
+ -- 34
- -- 30
* -- 187
:= -- 646
add.period$ -- 0
call.type$ -- 4
change.case$ -- 26
chr.to.int$ -- 4
cite$ -- 4
duplicate$ -- 140
empty$ -- 279
format.name$ -- 70
if$ -- 1160
int.to.chr$ -- 0
int.to.str$ -- 0
missing$ -- 0
newline$ -- 34
num.names$ -- 32
pop$ -- 122
preamble$ -- 1
purify$ -- 46
quote$ -- 0
skip$ -- 376
stack$ -- 0
substring$ -- 248
swap$ -- 0
text.length$ -- 20
text.prefix$ -- 20
top$ -- 0
type$ -- 24
warning$ -- 0
while$ -- 24
width$ -- 0
write$ -- 73
is.kanji.str$ -- 128
